﻿[
	{
		"_id": "co-50",
		"_parentId": "course",
		"_type": "page",
		"_classes": "",
		"height":"570",
		"title": "Как люди смотрят видео",
		"displayTitle": "Как люди смотрят видео",
		"pageBody": "В наши дни люди все активнее потребляют видео на мобильных устройствах. В этом курсе мы поговорим о тенденциях в мире цифровой рекламы, а также об инструментах для охвата новых аудиторий.",
		"body": "В наши дни люди все активнее потребляют видео на мобильных устройствах. В этом курсе мы поговорим о тенденциях в мире цифровой рекламы, а также об инструментах для охвата новых аудиторий.",
		"_graphic": {
			"src": "course/en/images/contentObjects/landing_01.png",
			"alt": "Обзор"
		},
		"linkText": "Смотреть",
		"durationLabel": "Длительность:",
		"duration": "4 мин",
		"_pageLevelProgress": {
			"_isEnabled": true
		}
	},
    {
		"_id": "co-100",
		"_parentId": "course",
		"_type": "page",
		"_classes": "",
		"height":"570",
		"title": "Оформление видео для Ленты новостей на мобильных устройствах.",
		"displayTitle": "Оформление видео для Ленты новостей на мобильных устройствах.",
		"pageBody": "Рекомендации по оформлению видео для Ленты новостей на мобильных устройствах.",
		"body": "Рекомендации по оформлению видео для Ленты новостей на мобильных устройствах.",
		"_graphic": {
			"src": "course/en/images/contentObjects/landing_02.png",
			"alt": "Обзор"
		},
		"linkText": "Смотреть",
		"durationLabel": "Длительность:",
		"duration": "4 мин",
		"_pageLevelProgress": {
			"_isEnabled": true
		}
	},
	{
		"_id": "co-150",
		"_parentId": "course",
		"_type": "page",
		"_classes": "",
		"height":"570",
		"title": "Истории успеха",
		"displayTitle": "Истории успеха",
		"pageBody": "Истории успеха рекламодателей, использующих видео в рекламе на Facebook, в Instagram и Audience Network.",
		"body": "Истории успеха рекламодателей, использующих видео в рекламе на Facebook, в Instagram и Audience Network.",
		"_graphic": {
			"src": "course/en/images/contentObjects/landing_03.png",
			"alt": "Обзор"
		},
		"linkText": "Смотреть",
		"durationLabel": "Длительность:",
		"duration": "4 мин",
		"_pageLevelProgress": {
			"_isEnabled": true
		}
	},
	{
		"_id": "co-200",
		"_parentId": "course",
		"_type": "page",
		"_classes": "",
		"height":"570",
		"title": "Проверка знаний",
		"displayTitle": "Проверка знаний",
		"pageBody": "Небольшой тест по материалам курса.",
		"body": "Небольшой тест по материалам курса.",
		"_graphic": {
			"src": "course/en/images/contentObjects/landing_04.png",
			"alt": "Обзор"
		},
		"linkText": "Смотреть",
		"durationLabel": "Длительность:",
		"duration": "4 мин",
		"_pageLevelProgress": {
			"_isEnabled": true
		}
	}
	

	
]
